\relax 
\mktht{137.92194pt}
\@writefile{toc}{\contentsline {section}{\numberline {1}PWA? What is that?}{1}{}\protected@file@percent }
\@writefile{toc}{\contentsline {section}{\numberline {2}PWA? A Solution?}{2}{}\protected@file@percent }
\@writefile{toc}{\contentsline {section}{\numberline {3}Advantages}{3}{}\protected@file@percent }
\@writefile{toc}{\contentsline {section}{\numberline {4}Why choose a PWA for development?}{3}{}\protected@file@percent }
\gdef \@abspage@last{4}
